<svg xmlns="http://www.w3.org/2000/svg" width="25" height="25" viewBox="0 0 25 25">
  <g id="call" transform="translate(-324 -587)">
    <circle id="call-2" data-name="call" cx="12.5" cy="12.5" r="12.5" transform="translate(324 587)" fill="#fff"/>
    <path id="Path_6024" data-name="Path 6024" d="M12.768,10.375,11.241,10.2a1.2,1.2,0,0,0-.986.343L9.149,11.649A9.045,9.045,0,0,1,5.187,7.687L6.3,6.575a1.2,1.2,0,0,0,.343-.986L6.467,4.074a1.2,1.2,0,0,0-1.2-1.064H4.231a1.193,1.193,0,0,0-1.2,1.245,10.216,10.216,0,0,0,9.553,9.553,1.193,1.193,0,0,0,1.245-1.2v-1.04A1.192,1.192,0,0,0,12.768,10.375Z" transform="translate(328.474 591.49)" fill="#0a81f8"/>
  </g>
</svg>
